<?xml version="1.0" encoding="UTF-8" standalone="no"?>
<!DOCTYPE svg PUBLIC "-//W3C//DTD SVG 1.1//EN" "http://www.w3.org/Graphics/SVG/1.1/DTD/svg11.dtd">
<svg width="100%" height="100%" viewBox="0 0 32 32" version="1.1" xmlns="http://www.w3.org/2000/svg" xmlns:xlink="http://www.w3.org/1999/xlink" xml:space="preserve" xmlns:serif="http://www.serif.com/" style="fill-rule:evenodd;clip-rule:evenodd;stroke-linejoin:round;stroke-miterlimit:2;">
    <rect x="0" y="0" width="32" height="32" style="fill:rgb(241,241,241);fill-opacity:0;fill-rule:nonzero;"/>
    <path d="M2,2L2,14L14,14L14,12L4,12L4,4L14,4L14,2L2,2" style="fill:white;fill-rule:nonzero;"/>
    <path d="M18,2L18,14L30,14L30,2L18,2ZM20,4L20,12L28,12L28,4L20,4Z" style="fill:white;"/>
    <path d="M2,18L2,20L14,20L14,18L2,18M18,18C20.007,22.998 20.007,25.002 18,30C22.998,27.993 25.002,27.993 30,30C27.993,25.002 27.993,22.998 30,18C25.002,20.007 22.998,20.007 18,18M2,23L2,25L14,25L14,23L2,23Z" style="fill:white;fill-rule:nonzero;"/>
    <rect x="2" y="28" width="12" height="2" style="fill:white;fill-rule:nonzero;"/>
</svg>
